…
create cpue plot and subset by species and size class

``` r
cpue.plot(newn_sum, speciesList = c("BLUE", "RESU"))
```

<img src="man/figures/README-unnamed-chunk-6-1.png" width="100%" />

    #> # A tibble: 28 × 15
    #> # Groups:   WaterBody, Year, Season, SpeciesCode, SpeciesCommon [28]
    #>    WaterBody   Year Season SpeciesCode SpeciesCommon SpeciesScientific mean_CPUE
    #>    <fct>      <dbl> <chr>  <chr>       <chr>         <fct>                 <dbl>
    #>  1 Newnans L…  2006 Fall   BLUE        Bluegill      Lepomis macrochi…    17.8  
    #>  2 Newnans L…  2006 Fall   RESU        Redear Sunfi… Lepomis microlop…     0.347
    #>  3 Newnans L…  2007 Fall   BLUE        Bluegill      Lepomis macrochi…    10.8  
    #>  4 Newnans L…  2007 Fall   RESU        Redear Sunfi… Lepomis microlop…     1.09 
    #>  5 Newnans L…  2008 Fall   BLUE        Bluegill      Lepomis macrochi…     7.39 
    #>  6 Newnans L…  2008 Fall   RESU        Redear Sunfi… Lepomis microlop…     0.352
    #>  7 Newnans L…  2009 Fall   BLUE        Bluegill      Lepomis macrochi…     4.58 
    #>  8 Newnans L…  2009 Fall   RESU        Redear Sunfi… Lepomis microlop…     0.188
    #>  9 Newnans L…  2010 Fall   BLUE        Bluegill      Lepomis macrochi…     1.13 
    #> 10 Newnans L…  2010 Fall   RESU        Redear Sunfi… Lepomis microlop…     0.068
    #> # ℹ 18 more rows
    #> # ℹ 8 more variables: sd_CPUE <dbl>, se_CPUE <dbl>, max_CPUE <dbl>,
    #> #   min_CPUE <dbl>, cv_CPUE <dbl>, sizeStrata <chr>, lower <dbl>, upper <dbl>
…
